{
  "$schema": "json-schema.org/draft-04/schema#",
  "definitions": {
    "line_core": {
      "type": "object",
      "properties": {
        "name": { "type": "string" },
        "folder": { "type": "string" },
        "hide_line": {
          "type": "boolean",
          "description": "Hide the line from the subplot"
        }
      },
      "required": ["name"]
    },
    "plot_element": {
      "type": "object",
      "properties": {
        "opacity": { "type": "number" },
        "label": { "type": "string" },
        "hide_label": {
          "type": "boolean",
          "description": "Remove the label from the legend completely"
        },
        "color": { "type": "string" },
        "base_line": {
          "oneOf" : [
            { "$ref": "#/definitions/line_core" },
            { "type": "array",
              "items": {"$ref": "#/definitions/line_core"}
            }
          ]
        }
      }
    },
    "y_properties": {
      "type": "object",
      "properties": {
        "ymin": { "type": "number" },
        "ymax": { "type": "number" },
        "ylog": { "type": "boolean" },
        "ylabel": { "type": "string" },
        "yminors": { "type": "number" },
        "ymajors": { "type": "number" },
        "yticks": {
          "type": "array",
          "items": {"type": "number"}
        }
      }
    },
    "extra_text": {
      "type": "object",
      "properties": {
        "text": {
          "type": "string",
          "description": "`text` to be displayed. Can contain (escaped) latex."
        },
        "x": { "type": "number" },
        "y": { "type": "number" },
        "fontsize": { "type": "number" },
        "opacity": { "type": "number" },
        "verticalalignment" : { "type": "string" },
        "horizontalalignment" : { "type": "string" },
        "color" : { "type": "string" }
      },
      "required": [ "text", "x", "y" ],
      "additionalProperties": false
    },
    "line": {
      "allOf": [
        {"$ref": "#/definitions/line_core"},
        {"$ref": "#/definitions/plot_element"},
        {"type": "object", "properties": {
          "linestyle": { "type": "string" },
          "linewidth": { "type": "number" }
        } }
      ],
      "properties": {
        "name": {},
        "folder": {},
        "opacity": {},
        "label": {},
        "hide_label": {},
        "hide_line": {},
        "color": {},
        "base_line": {},
        "linestyle": {},
        "linewidth": {}
      },
      "additionalProperties": false
    },
    "band": {
      "allOf": [
        {"$ref": "#/definitions/plot_element"},
        {"properties": {
          "data": {
            "type": "array",
            "items": {"$ref": "#/definitions/line_core"}
          }
        } }
      ],
      "properties": {
        "opacity": {},
        "label": {},
        "hide_label": {},
        "hide_line": {},
        "color": {},
        "base_line": {},
        "data": {}
      },
      "additionalProperties": false,
      "required": ["data"]
    },
    "plot": {
      "allOf": [
        { "type": "object",
          "properties": {
            "title": { "type": "string" },
            "output_file": { "type": "string" },
            "lines": {
              "type": "array",
              "items": { "$ref": "#/definitions/line"}
            },
            "bands": {
              "type": "array",
              "items": { "$ref": "#/definitions/band"}
            },
            "xmin": { "type": "number" },
            "xmax": { "type": "number" },
            "xpagelength": { "type": "number" },
            "ypagelength": { "type": "number" },
            "xmajors": { "type": "number" },
            "xminors": { "type": "number" },
            "xlog": { "type": "boolean" },
            "legend_outside": { "type": "boolean" },
            "legend_location": { "type": "string" },
            "legend_ordering": { "type": "array", "items": {"type": "number"} },
            "legend_height_shrinker": { "type": "number"},
            "xlabel": { "type": "string" },
            "xticks": {
              "type": "array",
              "items": {"type": "number"}
            },
            "extra_texts": {
              "type": "array",
              "items": { "$ref": "#/definitions/extra_text"}
            },
            "extra_lines": {
              "type": "array",
              "items": {
                "type": "object",
                "properties": {
                  "type": {
                    "type": "string",
                    "description": "`vertical` or `horizontal`"
                  },
                  "value": {
                    "type": "number",
                    "description": "Where to draw the lines"
                  },
                  "color" : { "type": "string" }
                }
              }
            },
            "ratio": {
              "oneOf" : [
                { "$ref": "#/definitions/y_properties" },
                { "type": "array",
                  "items": {"$ref": "#/definitions/y_properties"}
                }
              ]},
              "opacity": { "type": "number" }
          }
        },
        { "$ref": "#/definitions/y_properties" }
      ],
      "properties": {
        "title": {},
        "output_file": {},
        "lines": {},
        "bands": {},
        "xmin": {},
        "xmax": {},
        "xpagelength": {},
        "ypagelength": {},
        "xmajors": {},
        "xminors": {},
        "xlog": {},
        "legend_outside": {},
        "legend_location": {},
        "legend_ordering": {},
        "legend_height_shrinker": {},
        "extra_texts": {},
        "extra_lines": {},
        "xticks": {},
        "xlabel": {},
        "ratio": {},
        "ylabel": {},
        "ylog": {},
        "ymajors": {},
        "yminors": {},
        "ymin": {},
        "ymax": {},
        "yticks": {},
        "opacity": {}
      },
      "additionalProperties": false
    },
    "scalings": {
      "type": "object",
      "description": "For each `line_core` in `data` it will create a scaled version",
      "properties": {
        "type": { "enum": [ "scalings", "smooth", "fits", "binary_function" ] },
        "scale_by_point": {
          "type": "number",
          "description": "y-values (and errors) will be divided by the `y` value of the point with `x == scale_by_point`"
        },
        "scale_by_value": {
          "type": "number",
          "description": "y-values (and errors) will be divided by `scale_by_value`"
        },
        "scale_by_x": {
          "type": "number",
          "description": "y-values (and errors) will be multiplied at each point with `x**scale_by_x`"
        },
        "suffix": {
          "type": "string",
          "description": "Not supported yet. Default is `_scale`."
        },
        "data": {
          "type": "array",
          "items": { "$ref": "#/definitions/line_core" }
        }
      },
      "additionalProperties": false
    },
    "smooth": {
      "type": "object",
      "description": "For each `line_core` in `data` it will create a smoothed version",
      "properties": {
        "type": { "enum": [ "scalings", "smooth", "fits", "binary_function" ] },
        "window_size": { "type": "number" },
        "poly_order": { "type": "number" },
        "suffix": {
          "type": "string",
          "description": "Not supported yet. Default is `_smooth`."
        },
        "data": {
          "type": "array",
          "items": { "$ref": "#/definitions/line_core" }
        }
      },
      "additionalProperties": false
    },
    "fits": {
      "type": "object",
      "description": "For each `line_core` in `data` it will create a fitted version",
      "properties": {
        "type": { "enum": [ "scalings", "smooth", "fits", "binary_function" ] },
        "fit_degree": {
          "type": "number",
          "minimum": 0.0
        },
        "extrapolation_minus": { "type": "number" },
        "extrapolation_plus": { "type": "number" },
        "print_fit_parameters": { "type": "boolean" },
        "suffix": {
          "type": "string",
          "description": "Not supported yet. Default is `_fit`."
        },
        "data": {
          "type": "array",
          "items": { "$ref": "#/definitions/line_core" }
        }
      },
      "additionalProperties": false,
      "required": [ "fit_degree" ]
    },
    "binary_function": {
      "type": "object",
      "description": "Takes exactely two unique `line_core`s in `data` and combines them with the given lambda function in expression",
      "properties": {
        "type": { "enum": [ "scalings", "smooth", "fits", "binary_function" ] },
        "expression": {
          "type": "string",
          "description": "lambda expression to be `eval`uated: Default is `lambda x,y: x+y`."
        },
        "infix": {
          "type": "string",
          "description": "New data name is build up of old1 and old2, combined with `infix`. Default is `_sum_`."
        },
        "data": {
          "type": "array",
          "minItems": 2,
          "maxItems": 2,
          "uniqueItems": true,
          "items": { "$ref": "#/definitions/line_core" }
        }
      },
      "additionalProperties": false,
      "required": [ "fit_degree" ]
    },
    "transform": {
      "anyOf" : [
        { "$ref": "#/definitions/scalings" },
        { "$ref": "#/definitions/smooth" },
        { "$ref": "#/definitions/fits" },
        { "$ref": "#/definitions/binary_function" }
      ]
    }
  },
  "type": "object",
  "properties": {
    "plots": {
      "type": "array",
      "items": { "$ref": "#/definitions/plot"},
      "required": [ "1" ]
    },
    "transforms": {
      "type": "array",
      "description": "This is a list of transformations. The ordering in this list does not matter.",
      "items": {
        "type": "array",
        "description": "Each transformation is a list of atomic transformations of different types. The ordering in the transformation list matters.",
        "items": { "$ref": "#/definitions/transform" }
      }
    },
    "functions": {
      "type": "object",
      "description": "Use this to inject computed data. Put in `to_evaluate` the function names you want to be executed. Each function, defined in the string array `expression`, has to return a tupel `(tagname, data)`. `tagname` can be used in plot lines and bands. `data` has to be a numpy array like `np.vstack([x,y])` or `np.vstack([x,y,yerr])`.",
      "properties": {
        "expression": {
          "type": "array",
          "items": { "type": "string" }
        },
        "to_evaluate": {
          "type": "array",
          "items": { "type": "string" }
        }
      }
    },
    "data_output": {
      "type": "string",
      "description": "Not supported yet. Default is `./plots`."
    }
  },
  "required": [ "plots" ],
  "additionalProperties": false
}
